9	Mike is in the sandbox.
10	Mike is sitting in the sandbox.
18	Mike is sitting in the sandbox.
26	Mike is standing on the grass.
32	Mike is wearing a hat.
36	Mike is sitting in the sandbox.
39	Mike is wearing a hat.
46	Jenny is sitting on the table.
47	Jenny is sitting on the table.
48	Jenny is in the sandbox.
52	Mike is in the sky.
55	Mike is playing in the sky.
59	Mike is wearing a hat.
61	Mike is standing by the table.
64	Mike is wearing a ball.
67	Mike is wearing a pirate hat.
74	Mike is in the sky.
77	Mike is jumping in the sky.
78	Mike is holding a frisbee.
79	Mike is holding a frisbee.
84	Mike is holding a hamburger.
87	Mike is holding a baseball.
88	Mike is in the tree.
91	Mike is wearing sunglasses.
94	Mike is wearing a hat.
97	Mike is holding a tennis ball.
108	Mike is kicking the football.
111	Mike is wearing a hat.
119	Mike is wearing a hat.
120	Mike is holding a baseball.
121	Mike is holding a baseball.
124	Mike is wearing a baseball.
125	Mike and Jenny are playing baseball.
129	Mike is holding a baseball.
136	Mike is wearing a pizza.
143	Mike is sitting in the tree.
144	Mike is wearing a baseball hat.
147	Mike is wearing a pirate hat.
153	Mike is sitting in the sandbox.
158	Mike is wearing a hat.
162	Jenny is on the slide.
164	Mike is sitting on the slide.
165	Mike is sitting in the sandbox.
166	Mike is sitting in the sandbox.
168	Mike is wearing sunglasses.
169	Mike is sitting in the sandbox.
172	Jenny is on the slide.
180	Mike is in the sandbox.
182	Mike is raining in the sandbox.
185	Mike is in the sandbox.
186	Mike is in the sandbox.
187	Mike is raining on the tree.
191	Mike is playing in the sandbox.
195	Mike is kicking the soccer ball.
200	Mike is holding a hamburger.
207	Mike is standing by the table.
217	Jenny is wearing a hat.
218	Jenny is wearing a hat.
225	Mike is standing by the tree.
229	Mike is wearing a blue hat.
234	Mike is sitting in the sky.
237	The dog is in the tree.
252	Mike is wearing a hat.
254	Mike is wearing a baseball.
255	Mike is wearing sunglasses.
264	Mike is wearing sunglasses.
276	Mike is sitting in the sandbox.
290	Mike is wearing a hat.
291	Mike is wearing sunglasses.
294	Mike is sitting in the sky.
296	Mike is sitting on the tree.
298	Mike is wearing a hat.
301	Mike is sitting in the tree.
303	Mike is sitting in the sky.
305	Mike is sitting in the tree.
308	Mike is sitting in the sky.
310	Mike is wearing a blue hat.
316	Jenny is on the table.
320	Mike is holding a pie.
326	Mike is wearing a pirate hat.
337	Mike is wearing a blue hat.
338	Mike is holding a hot dog.
351	Mike is wearing sunglasses.
355	Mike is sitting on the slide.
356	Mike is sitting on the slide.
362	Mike is happy to Jenny.
379	Mike is standing by the tree.
382	Mike is kicking the ball.
391	Mike is wearing sunglasses.
394	Mike is wearing a hat.
401	Mike is wearing a baseball.
404	Mike is wearing a baseball.
405	Mike is in the sky.
415	Mike is wearing a hat.
416	Mike is wearing sunglasses.
418	Mike is sitting in the tree.
419	Mike is sitting in the sky.
421	Mike is wearing a hat.
442	Mike is wearing a hat.
444	Mike is playing in the sky.
445	Mike is sitting in the tree.
452	Mike is holding a hamburger.
453	Mike is holding a hamburger.
458	Mike is wearing sunglasses.
461	Mike is wearing a witch hat.
468	Mike is wearing a ball.
470	Mike is wearing sunglasses.
474	Mike is holding a frisbee.
487	Mike is kicking the ball.
492	Mike is wearing a silly hat.
494	Mike is wearing a hat.
497	Mike is playing in the sandbox.
499	Mike is chasing the ball.
507	Mike is wearing a silly hat.
508	Mike is standing by the table.
509	Mike is wearing a hat.
511	Mike is wearing a hat.
512	Mike is sitting on the table.
523	Mike is holding a pie.
525	Mike is wearing sunglasses.
526	Mike is holding a pie.
531	Mike is standing by the tree.
535	Jenny is flying in the sky.
536	Mike is in the sky.
540	Mike is wearing sunglasses.
545	Mike is sitting in the tree.
550	Mike is holding a hamburger.
560	Mike is wearing sunglasses.
574	Mike is wearing a hat.
581	Mike is kicking the soccer ball.
590	Mike is wearing a pirate hat.
595	Mike is playing in the sky.
598	Mike is holding a tennis ball.
600	Mike is wearing a baseball.
601	Mike is wearing a hat.
608	Mike is holding a baseball.
612	Mike is wearing a hat.
613	Mike is wearing sunglasses.
616	Mike is wearing sunglasses.
620	Mike is sitting in the sandbox.
621	Mike is wearing sunglasses.
631	Mike is wearing a hat.
633	Jenny is waving to Jenny.
636	Mike is wearing sunglasses.
643	Mike is sitting on the table.
649	Mike is wearing a hat.
655	Mike is standing in the sky.
665	Mike is wearing a hat.
666	Mike is angry at Jenny.
678	Mike is sitting on the slide.
690	Jenny is in the tree.
691	The duck is in the sky.
693	The duck is in the tree.
710	Mike is wearing a pirate hat.
715	Mike is wearing sunglasses.
718	Mike is wearing a blue hat.
720	Mike is wearing a hat.
725	Mike is standing in the sky.
728	Mike is wearing sunglasses.
731	Mike is standing by the tree.
732	Mike is trying to the park.
734	Mike is holding a hamburger.
735	Jenny is scared of the bear.
737	Mike is in the sky.
740	Mike is wearing a blue hat.
748	Mike is sitting in the sky.
767	Mike is standing by the table.
775	Mike is holding a kite.
789	Mike is holding a baseball.
796	Mike is holding a baseball.
800	Mike is sitting in the sky.
801	Mike is holding a tennis ball.
806	Jenny is flying in the sandbox.
810	Mike is wearing a hat.
816	Mike is wearing a hat.
821	Mike is kicking the soccer ball.
831	Mike is in the tree.
833	Mike is wearing a hat.
834	Mike is holding a baseball.
839	Jenny is waving at Mike.
846	Mike is holding a hamburger.
852	Jenny is on the table.
857	Mike is wearing a hat.
863	The dog is in the tree.
880	Mike is raining on the table.
883	Mike is wearing a hat.
895	Mike is sitting in the sky.
898	Jenny is flying in the sky.
904	Mike is sitting on the table.
914	Mike is sitting in the sandbox.
915	The cat is in the sandbox.
920	Mike is holding a hot dog.
922	Mike is wearing a hat.
925	Mike is wearing a hat.
928	Mike is wearing a hat.
935	Mike is in the tree.
937	Mike is sitting in the sandbox.
944	Mike is holding a football.
961	Mike is in the tree.
969	Mike is holding a hot dog.
973	Jenny is on the table.
977	Mike is mad at Mike.
980	Mike is in the tree.
981	Mike is in the park.
990	Mike is wearing a silly hat.
995	Mike is holding a baseball.
997	Mike is holding a baseball.
1000	Mike is wearing a hat.
1005	Mike is wearing sunglasses.
1013	Mike is sitting in the sky.
1014	Mike is in the sky.
1016	The sun is in the sky.
1021	Mike is sitting in the sky.
1027	Mike is sitting in the sky.
1030	Mike is in the sky.
1031	Mike is wearing a hat.
1040	Mike is sitting on the table.
1045	Mike is in the sky.
1050	Mike is wearing a hat.
1067	Mike is kicking the soccer ball.
1071	Jenny is wearing a silly hat.
1075	Mike is holding a hot dog.
1076	Jenny is waving at Mike.
1084	Jenny is holding a baseball.
1085	Mike is sitting in the tree.
1087	Jenny is wearing sunglasses.
1095	Mike is sitting in the sky.
1105	Mike is sitting in the tree.
1106	Mike is standing in the tree.
1112	Mike is wearing sunglasses.
1113	Mike is wearing a hat.
1115	Mike is wearing a hat.
1126	Mike is sitting in the sky.
1130	Jenny is scared of the snake.
1139	Mike is holding a baseball.
1140	Mike is wearing a hat.
1141	Mike is sitting in the sandbox.
1155	Mike is holding a kite.
1162	Mike is wearing a hat.
1163	Mike is wearing a hat.
1164	Mike is sitting on the table.
1173	Mike is standing by the snake.
1176	Mike is sitting in the tree.
1186	Mike is wearing sunglasses.
1196	Mike is holding a hamburger.
1204	Mike is holding a tennis ball.
1206	Mike is wearing sunglasses.
1212	Mike is wearing a blue hat.
1222	Mike is wearing a hat.
1228	Mike is wearing a viking hat.
1239	Mike is holding a hamburger.
1243	Mike is holding a pie.
1244	The dog is on the table.
1247	Jenny is on the table.
1248	The helicopter is in the sky.
1249	Jenny is flying a kite.
1250	Mike is wearing a blue hat.
1254	Mike is wearing a witch hat.
1255	Mike is wearing a blue hat.
1258	Mike is wearing sunglasses.
1266	Mike is holding a pie.
1272	Mike is very happy.
1275	Mike is holding a ball.
1279	Mike is wearing a baseball.
1282	Mike is holding a hot dog.
1284	Mike is wearing sunglasses.
1285	Mike is in the sandbox.
1298	Mike is angry at Jenny.
1303	Mike is sitting on the table.
1306	Mike is wearing a hat.
1307	Mike is holding a pizza.
1309	Mike is jumping in the sky.
1311	Mike is holding a pizza.
1313	Mike is holding a pizza.
1315	Mike is sitting in the sky.
1317	Mike is wearing a ball.
1321	Mike is wearing a hat.
1329	Mike is sitting in the sky.
1333	Mike is wearing sunglasses.
1335	Jenny is scared of the bear.
1336	Mike is sitting in the sky.
1344	Mike is wearing a hat.
1346	Mike is wearing a blue cap.
1349	Mike is wearing sunglasses.
1354	Mike is in the sandbox.
1358	Mike is wearing a hat.
1360	Mike is sitting in the sandbox.
1361	Mike is sitting in the sandbox.
1367	Mike is sitting in the sandbox.
1376	Mike is holding balloons.
1381	Mike is sitting on the table.
1382	Mike is holding a baseball.
1385	Mike is holding a baseball.
1397	Mike is playing in the sky.
1402	Mike is in the sandbox.
1411	Mike is wearing a hat.
1424	Jenny is waving at Mike.
1425	Mike is kicking the ball.
1432	Mike is wearing sunglasses.
1437	Mike is sitting in the sky.
1440	Mike is wearing a hat.
1449	Mike is sitting in the sky.
1451	Mike is wearing a ball.
1456	Mike is sitting in the tree.
1457	Mike is wearing sunglasses.
1470	Mike is wearing sunglasses.
1475	Jenny is waving at Mike.
1490	The dog is on the table.
1498	Mike is holding a baseball.
1500	Mike is sitting in the tree.
1508	Mike is standing by the tree.
1515	Mike is holding a hot dog.
1521	Mike is holding a baseball.
1537	Mike is wearing a hat.
1541	Mike is wearing sunglasses.
1545	Mike is holding a hamburger.
1553	Mike is in the sky.
1554	Mike is holding a baseball.
1556	Mike is holding a hamburger.
1573	Mike is wearing a hat.
1575	Mike is wearing a hat.
1582	Mike is wearing a hat.
1586	Mike is wearing a pirate hat.
1591	Mike is holding a hamburger.
1594	Mike has a hamburger.
1598	Mike is holding a hamburger.
1601	Mike is wearing sunglasses.
1611	Mike is kicking the ball.
1612	Mike is kicking the ball.
1613	Mike and Jenny are playing baseball.
1623	Mike is very happy.
1642	Mike is wearing a blue hat.
1646	Mike is wearing a hat.
1658	Mike is sitting in the sky.
1661	Mike is sitting in the sandbox.
1662	Mike is sitting on the table.
1664	Mike is holding a hot dog.
1666	Mike is sitting in the sandbox.
1671	Mike is wearing a chef hat.
1680	Mike is wearing a hat.
1684	Mike is kicking the soccer ball.
1690	Mike is wearing a hat.
1693	Mike is wearing a hat.
1700	Mike is wearing sunglasses.
1702	Mike is wearing a hat.
1705	Mike is standing by the table.
1708	Mike is sitting in the tree.
1712	Jenny is scared of the bear.
1717	Mike is holding a ball.
1719	Mike is standing by the tree.
1720	Mike is wearing a hat.
1725	Mike is holding a ball.
1727	Mike is holding a hot dog.
1729	Mike is wearing sunglasses.
1734	Mike is holding balloons.
1736	Mike is holding the balloons.
1737	Mike is holding balloons.
1739	Mike is standing by Jenny.
1755	Mike is wearing a blue hat.
1756	Mike is kicking the ball.
1758	Mike is kicking the soccer ball.
1762	Mike is sitting in the tree.
1763	Mike is wearing a hat.
1772	Mike is kicking the ball.
1774	Mike is holding a tennis ball.
1787	Mike is throwing the ball.
1801	Mike is in the sky.
1802	Mike is kicking the soccer ball.
1804	Mike is wearing a ball.
1808	Mike is kicking the ball.
1810	Jenny is wearing a silly hat.
1829	Mike is wearing a hat.
1832	Mike is sitting in the sandbox.
1835	Jenny is scared of the snake.
1838	Mike is standing near the sky.
1843	Mike is sitting in the sky.
1856	Mike is wearing a pirate hat.
1861	Mike is holding a baseball.
1867	Mike is standing by the tree.
1875	Mike is sitting in the sky.
1882	Mike is wearing a pirate hat.
1902	Mike is wearing a hat.
1910	Mike is wearing a hat.
1913	Mike is wearing sunglasses.
1916	Mike is wearing sunglasses.
1918	Mike is very happy.
1930	Mike is sitting in the sky.
1932	The owl is in the sky.
1943	Mike is by the tree.
1946	Mike is mad at Mike.
1947	Jenny is scared of the snake.
1948	Mike is a soccer ball.
1950	Mike is wearing a pirate hat.
1956	Mike is wearing a pirate hat.
1964	Mike is wearing sunglasses.
1965	Mike is kicking the soccer ball.
1970	Mike is holding balloons.
1971	Mike is holding a pie.
1979	Mike is wearing a pirate hat.
1980	Jenny is on the slide.
1984	Mike is wearing sunglasses.
1990	Mike is sitting on the table.
1992	Jenny is on the table.
2003	Mike is in the sky.
2005	Mike is holding a baseball.
2010	Mike is very sad.
2013	Mike is wearing a witch hat.
2014	Mike is wearing a hat.
2040	Jenny is wearing a hat.
2043	Jenny is sitting on the table.
2048	The cat is in the sky.
2050	Jenny is standing by the tree.
2055	Jenny has a tennis ball.
2056	The dog is in the park.
2057	Jenny is sad to the park.
2061	Mike is wearing a hat.
2062	Mike is wearing sunglasses.
2063	Mike is in the sandbox.
2068	Mike is in the sandbox.
2072	Mike is holding a hamburger.
2077	Mike is holding a hamburger.
2089	Jenny is wearing a chef hat.
2090	Mike is holding a hamburger.
2091	Mike is sitting in the tree.
2093	Mike is holding a hamburger.
2097	Mike is holding a hamburger.
2111	Mike is in the sky.
2115	Jenny is waving at Mike.
2118	Mike is wearing sunglasses.
2121	Mike is kicking the ball.
2123	The owl is in the sky.
2130	Mike is holding a football.
2150	Mike is wearing a hat.
2156	Mike is raining on the table.
2162	Mike is wearing a pirate hat.
2173	Mike has a hamburger.
2179	Mike is wearing a hat.
2180	Jenny is wearing sunglasses.
2185	Jenny is wearing sunglasses.
2191	Mike is sitting in the sky.
2197	Mike is sitting in the sky.
2199	Mike is holding a baseball.
2206	Mike is wearing a hat.
2207	Mike is mad at the bear.
2208	Mike is wearing a pirate hat.
2223	Mike is wearing a pie.
2225	Mike is wearing sunglasses.
2230	Mike is wearing a pirate hat.
2231	Mike is wearing a pirate hat.
2233	Mike is in the sky.
2235	Mike is in the sky.
2242	Mike is sitting on the table.
2244	Mike is sitting in the tree.
2257	Mike is wearing a hat.
2258	Mike is wearing a pirate hat.
2262	Mike is wearing a hat.
2266	Mike is wearing a hat.
2267	Mike is wearing a hat.
2279	The sun is in the sandbox.
2281	Mike is sitting in the tree.
2283	Mike is wearing sunglasses.
2289	Mike is holding a ball.
2292	Mike is kicking the soccer ball.
2300	Mike is wearing sunglasses.
2301	Mike is kicking the soccer ball.
2302	Mike is sitting in the tree.
2310	Mike is sitting in the sandbox.
2312	Mike is sitting in the sandbox.
2314	Mike is sitting in the sandbox.
2318	Mike is wearing a blue hat.
2327	The owl is in the sky.
2329	The owl is in the sky.
2335	Jenny is waving to the tree.
2337	Mike is wearing a ball.
2339	Mike is holding a football.
2341	Mike is sitting in the sky.
2342	Jenny is sitting in the sky.
2350	Mike is sitting on the slide.
2355	Mike is sitting on the table.
2359	Mike is wearing a pirate hat.
2360	Mike is wearing sunglasses.
2362	Mike is sitting in the sky.
2368	Mike is sitting in the sky.
2369	Mike is sitting on the slide.
2373	Mike is wearing sunglasses.
2376	Mike is playing on the table.
2378	Mike is holding a frisbee.
2383	Mike is sitting on the table.
2390	Jenny is scared of the slide.
2391	Mike is wearing a hat.
2396	Mike is jumping in the tree.
2397	Mike is holding a kite.
2398	Jenny is flying in the sky.
2401	Mike is sitting by the tree.
2402	Mike is sitting on the table.
2409	Mike is sitting on the tree.
2418	Mike is wearing a silly hat.
2419	Mike is sitting on the grass.
2432	Mike is wearing a pirate hat.
2434	Mike is wearing a pirate hat.
2442	Mike is sitting on the table.
2453	Mike is wearing a blue hat.
2461	Mike is sitting in the sky.
2464	The owl is in the sky.
2465	Mike is wearing a pirate hat.
2466	Mike is wearing a baseball cap.
2488	Mike is wearing a hat.
2496	Mike is sitting in the sandbox.
2500	Mike is standing in the sky.
2509	Mike is wearing sunglasses.
2513	Mike is sitting in the sky.
2515	Mike is wearing a hat.
2520	Mike is wearing a blue hat.
2529	Mike is wearing a witch hat.
2531	Mike is wearing sunglasses.
2533	Mike is standing by the tree.
2535	Mike is playing in the tree.
2538	Jenny is scared of the bear.
2539	Mike is wearing sunglasses.
2543	Mike is kicking the ball.
2552	Mike is wearing a ball.
2560	Mike is wearing sunglasses.
2561	Mike is sitting in the tree.
2564	Mike is sitting in the tree.
2575	Mike is wearing sunglasses.
2581	Mike is holding a hot dog.
2591	Mike is holding a kite.
2598	Jenny is sitting in the sky.
2609	Mike is holding a ball.
2614	Mike is wearing sunglasses.
2615	Mike is sitting in the sandbox.
2617	Mike is sitting in the sky.
2618	Mike is wearing a hat.
2620	Mike is sitting in the tree.
2626	Mike is sitting in the tree.
2629	Mike is wearing a hat.
2631	Jenny is scared of the snake.
2634	Mike is wearing sunglasses.
2640	Mike is throwing the ball.
2643	Mike is playing in the sky.
2650	Mike is wearing sunglasses.
2660	The owl is in the sky.
2663	Mike is wearing a baseball cap.
2664	Mike is holding a pizza.
2665	Mike is wearing sunglasses.
2668	Jenny is holding a pizza.
2688	Mike is sitting in the sky.
2692	Mike is looking at Mike.
2694	Mike is sitting by the tree.
2695	Mike is wearing a baseball hat.
2696	Mike is sitting in the tree.
2699	Mike is sitting in the tree.
2702	Mike is wearing a silly hat.
2724	Jenny is on the table.
2737	Mike is wearing a hat.
2754	Mike is wearing sunglasses.
2755	Mike is wearing a ball.
2758	Mike is wearing sunglasses.
2761	Mike is wearing sunglasses.
2762	Mike has a football.
2763	Mike is wearing a hat.
2765	Mike is wearing a pirate hat.
2768	Mike is holding a football.
2775	Mike is kicking the soccer ball.
2781	Mike is wearing sunglasses.
2783	Jenny is flying a kite.
2785	Mike is holding a kite.
2786	Mike is holding a kite.
2794	Mike is wearing a pirate hat.
2796	Mike is wearing a pirate hat.
2799	Mike is wearing a pirate hat.
2804	Mike is in the sky.
2808	The sun is in the sky.
2819	Mike is jumping in the sky.
2820	Mike is holding a hamburger.
2825	Mike is holding a hamburger.
2831	Jenny is holding balloons.
2834	Jenny is in the sky.
2838	Jenny is holding balloons.
2842	Jenny is flying a kite.
2844	Mike is in the sandbox.
2847	Jenny is flying a kite.
2851	Mike is holding a baseball.
2855	Mike is wearing a hat.
2857	Mike is standing by the tree.
2859	Mike is holding a kite.
2860	Mike is holding a frisbee.
2863	Mike is in the sky.
2864	Jenny is wearing sunglasses.
2888	Mike is wearing sunglasses.
2893	Mike is holding a pie.
2895	Mike is holding a pie.
2898	Mike is holding a pie.
2899	Mike is holding a pie.
2902	Mike is sitting in the sky.
2904	Mike is sitting in the park.
2906	Mike is sitting in the sky.
2910	Mike is wearing a hat.
2915	Mike is holding a hamburger.
2921	Mike is playing in the sandbox.
2924	Mike is wearing a blue cap.
2925	Mike is sitting in the sandbox.
2926	Mike is wearing a blue cap.
2927	Mike is wearing a pirate hat.
2937	There is a balloon in the sky.
2939	Mike is wearing a hat.
2940	Mike is wearing a hat.
2943	Mike is wearing a ball.
2946	Mike is wearing a pirate hat.
2949	Mike is wearing a hat.
2951	Mike is wearing sunglasses.
2954	Mike is in the sky.
2964	The cat is in the tree.
2969	Jenny is scared of the tree.
2981	Mike is holding a kite.
2987	Mike is wearing a hat.
2989	Jenny is flying a kite.
2992	Mike is wearing a hat.
3004	Mike is holding a baseball.
3005	Mike is wearing a silly hat.
3007	Jenny is wearing sunglasses.
3009	Mike is sitting in the sky.
3010	Mike is wearing a pirate hat.
3012	Mike is wearing a pirate hat.
3022	Jenny is flying in the sky.
3025	Mike is holding a kite.
3027	Mike is wearing a hat.
3030	Mike is standing by the tree.
3037	Mike is sitting in the tree.
3039	Mike is wearing sunglasses.
3049	Jenny is waving at Mike.
3054	Jenny is wearing a pirate hat.
3059	The sun is in the sky.
3063	Mike is wearing a pirate hat.
3072	Mike is kicking the ball.
3080	Mike is wearing a blue hat.
3083	Mike is sitting in the sandbox.
3084	Mike is sitting in the sky.
3095	Jenny is waving at Jenny.
3096	Jenny is flying in the sky.
3098	Jenny is flying in the sky.
3099	Mike is sitting in the sky.
3103	Mike is sitting in the tree.
3112	Mike is holding a baseball.
3115	Mike is wearing a pirate hat.
3116	Mike is wearing a hat.
3121	The owl is in the sky.
3122	Mike is standing by the table.
3127	The sun is in the sky.
3129	Mike is wearing a chef hat.
3130	Mike is holding a hamburger.
3134	Mike is sitting in the sandbox.
3143	Mike is wearing sunglasses.
3149	Mike is wearing sunglasses.
3151	Jenny is flying in the sky.
3164	Jenny is flying in the sky.
3174	Mike is wearing a hat.
3185	Mike is wearing a hat.
3195	Mike is wearing a blue hat.
3197	Mike is sitting in the sandbox.
3198	Mike is sitting in the sandbox.
3200	Mike is wearing a hat.
3205	Mike is wearing a hat.
3212	Jenny is flying in the sky.
3214	Mike is wearing a pirate hat.
3215	Mike is wearing a blue hat.
3219	Mike is wearing a hat.
3222	Mike is wearing a hat.
3224	Mike is wearing a hat.
3232	Mike is kicking the ball.
3233	Mike is kicking the ball.
3241	Mike is sitting in the sandbox.
3244	Mike is wearing sunglasses.
3246	Mike is wearing a ball.
3248	Mike is holding a hamburger.
3250	Mike is wearing sunglasses.
3251	Mike is wearing a hat.
3262	Jenny is flying in the tree.
3264	Mike is flying in the sky.
3265	The bear is in the sandbox.
3269	The bear is in the tree.
3273	Mike is holding a hamburger.
3274	Mike is sitting in the sky.
3277	Mike is wearing a hat.
3279	Jenny is flying a kite.
3286	Mike is wearing a hat.
3292	Mike is wearing a viking hat.
3293	Mike is sitting on the table.
3294	Mike is sitting on the tree.
3298	Mike is sitting in the sky.
3299	Mike is sitting on the table.
3309	Mike is wearing a hat.
3310	Mike is sitting on the grass.
3312	Mike is wearing a hat.
3320	Mike is wearing a hat.
3328	Mike is wearing sunglasses.
3330	Mike is holding a hamburger.
3331	Mike is holding a hamburger.
3341	Mike is standing on the table.
3343	Mike is wearing a hat.
3350	Mike is wearing a pirate hat.
3354	Mike is sitting in the tree.
3360	Mike is in the tree.
3371	Jenny is holding the balloons.
3372	Mike is holding a football.
3391	Mike is wearing a hat.
3394	Mike is holding a hamburger.
3414	Mike is holding a kite.
3417	Mike is in the sandbox.
3420	Jenny is in the sky.
3430	Mike is sitting on the slide.
3434	Mike is sitting in the sandbox.
3436	Mike is wearing sunglasses.
3439	Mike is wearing sunglasses.
3448	Mike is wearing a pirate hat.
3452	Mike is wearing a pirate hat.
3456	Mike is standing by the tree.
3461	The bear is in the sky.
3463	Mike is wearing a pirate hat.
3464	Mike is sitting in the tree.
3465	Mike is wearing a hat.
3471	Mike is wearing a hat.
3479	Mike is sitting in the sky.
3490	Mike is holding a hamburger.
3497	Mike is wearing a hat.
3505	Mike is wearing a hat.
3513	Mike is sitting in the sky.
3524	Jenny is scared of the tree.
3525	Mike is standing by the bear.
3526	The bear scared of the bear.
3530	Mike is sitting in the sandbox.
3533	Mike is sitting in the sandbox.
3548	Mike is holding balloons.
3549	Mike is holding balloons.
3552	Mike is wearing sunglasses.
3553	Mike is sitting in the tree.
3555	Mike is sitting in the tree.
3559	Mike is wearing a blue hat.
3564	Mike threw the frisbee.
3566	The duck is in the sky.
3573	Jenny is wearing a blue hat.
3583	Mike is kicking the soccer ball.
3586	Mike kicks the soccer ball.
3587	Mike is kicking the soccer ball.
3590	Mike is holding a tennis ball.
3592	Mike is wearing a hat.
3594	Mike is wearing a hat.
3597	Mike is in the sky.
3600	Mike is jumping in the sky.
3602	Mike is wearing sunglasses.
3603	Mike is wearing a hat.
3613	Mike is sitting in the sandbox.
3624	Jenny is running to the park.
3629	Jenny is running to the park.
3639	Mike is wearing a silly hat.
3645	Mike is wearing a baseball.
3648	Mike is holding a baseball.
3651	Mike is holding a hot dog.
3657	Mike is holding a hot dog.
3669	Mike is mad at Mike.
3670	Mike is kicking the ball.
3674	Mike is kicking the ball.
3676	Mike is wearing a hat.
3680	Mike is sitting in the sandbox.
3703	Mike is holding a hamburger.
3708	Mike is sitting in the tree.
3709	Mike is sitting in the tree.
3722	Mike is in the sky.
3723	Jenny is on the slide.
3725	Mike is very happy.
3732	Mike is in the tree.
3738	Mike is standing by the table.
3744	Mike is wearing a pirate hat.
3745	Mike is wearing a pirate hat.
3748	Mike is wearing a pirate hat.
3749	Mike is wearing a pirate hat.
3758	Mike is wearing a blue cap.
3760	Mike is in the sky.
3768	Mike is standing in the park.
3770	Mike is eating a hot dog.
3771	Mike is wearing sunglasses.
3774	Mike is sitting on the table.
3776	Mike is wearing sunglasses.
3779	Mike is sitting in the tree.
3792	Mike is wearing a hat.
3800	Mike is kicking the ball.
3805	Mike is wearing a hat.
3808	Mike is kicking the soccer ball.
3810	Mike is sitting on the table.
3812	Mike is wearing a hat.
3820	Mike is kicking the ball.
3821	Jenny is running to Jenny.
3825	Mike is holding a football.
3830	Mike is sitting in the sandbox.
3843	Mike is wearing a hat.
3849	Mike is wearing a pirate hat.
3854	Mike is wearing a hat.
3858	Mike is sitting on the table.
3864	Mike is sitting in the sandbox.
3874	Mike is holding a baseball.
3884	Mike is sitting in the sky.
3901	Mike is wearing a hat.
3905	Mike is wearing a ball.
3909	The sun is in the sky.
3918	Mike is kicking the soccer ball.
3919	Mike is standing by the snake.
3921	Mike is holding a hamburger.
3928	Mike has a hamburger.
3932	Mike is sitting in the sky.
3933	Mike is standing in the sandbox.
3937	Mike is wearing a hat.
3938	Mike is sitting in the tree.
3941	Mike is wearing a hat.
3949	Mike is wearing a pirate hat.
3952	Mike is sitting in the tree.
3958	Mike is sitting in the sky.
3965	Mike is standing by the slide.
3967	Jenny is on the slide.
3970	Jenny is standing in the park.
3971	Mike has a tennis ball.
3973	Jenny is standing next to the tree.
3980	Mike is kicking the ball.
3982	Mike is wearing a hat.
3990	Mike is sitting on the table.
3993	Mike is sitting on the table.
3996	Mike is sitting on the table.
3997	Mike is sitting on the table.
4000	Mike is sitting on the grass.
4001	Mike is wearing a hat.
4004	Mike is wearing a hat.
4005	The duck is in the sky.
4014	Mike is wearing a pirate hat.
4019	Mike is sitting in the tree.
4020	Mike has a hat.
4026	Mike is kicking the soccer ball.
4027	Mike is kicking the soccer ball.
4057	Mike is sitting on the table.
4058	Mike is in the tree.
4071	Jenny is flying in the sky.
4078	Jenny is flying in the sky.
4082	Mike is in the sandbox.
4086	Mike is standing in the tree.
4090	Mike is wearing a hat.
4096	Mike is wearing a baseball.
4099	Jenny is scared of the tree.
4109	Mike is holding a kite.
4110	Mike is wearing a hat.
4123	Mike is wearing sunglasses.
4130	Mike is wearing sunglasses.
4139	Mike is wearing sunglasses.
4148	Mike is sitting on the tree.
4150	Jenny is flying in the sky.
4152	Mike is wearing sunglasses.
4167	Mike is sitting on the table.
4168	Mike is wearing a hat.
4177	Mike is in the tree.
4182	Mike is wearing a hat.
4189	Mike is wearing a hat.
4190	Mike is sitting in the sky.
4192	Mike is wearing a hat.
4195	Jenny is running to Jenny.
4197	Mike is holding a baseball.
4200	Jenny is flying in the sky.
4211	Mike is wearing a ball.
4212	Mike is wearing a hat.
4218	Mike is standing by the tree.
4220	Jenny is flying a kite.
4231	Mike is wearing a ball.
4234	Mike has a baseball.
4235	Mike is holding a baseball.
4248	Mike is wearing a hat.
4250	The dog is in the sky.
4252	Mike is wearing a pirate hat.
4254	Mike is wearing a blue cap.
4255	Mike is holding a hot dog.
4267	Mike is in the sky.
4268	Mike is sitting in the sky.
4281	Mike is in the sandbox.
4284	Mike is wearing a hat.
4290	Jenny is holding balloons.
4295	Mike is sitting in the sandbox.
4304	Mike is sitting on Mike.
4317	Mike is sitting in the tree.
4318	Mike is sitting in the tree.
4320	Mike is holding a pizza.
4324	Mike is sitting in the tree.
4335	Mike is wearing sunglasses.
4344	Jenny is flying in the sky.
4345	Mike is wearing a pirate hat.
4346	Mike is sitting in the sky.
4351	Mike is wearing a hat.
4355	Mike is wearing a hat.
4357	Mike is wearing a silly hat.
4363	Mike is sitting in the park.
4365	The sun is in the sky.
4378	Mike is sitting on the grass.
4379	Mike is wearing a pirate hat.
4387	Mike wants the dog.
4391	Mike is wearing a baseball.
4392	Jenny is on the slide.
4393	Jenny is on the slide.
4395	Mike is wearing a hat.
4414	Jenny is flying a kite.
4419	Jenny is flying a kite.
4423	Mike is in the sky.
4432	Mike is wearing a pirate hat.
4433	Mike is very happy.
4434	Mike is wearing a hat.
4435	Jenny is scared of the bear.
4437	Jenny is scared of the tree.
4438	Jenny is scared of the tree.
4453	Mike is wearing a pirate hat.
4454	Mike is wearing a pirate hat.
4458	Mike is wearing a hat.
4460	Mike has a hamburger.
4467	Mike is holding a hamburger.
4469	Mike is in the tree.
4472	Mike is sitting on the table.
4474	Jenny is flying a kite.
4481	Mike is sitting in the sky.
4486	Mike is wearing a pirate hat.
4498	Mike is holding a tennis ball.
4499	Mike is wearing a ball.
4500	Mike is wearing sunglasses.
4501	Mike is wearing a hat.
4511	Mike is sitting on the grass.
4520	Mike is next to the table.
4521	Mike is holding a ball.
4533	Mike is sitting in the sky.
4535	The sun is in the sky.
4539	The duck is on the table.
4548	Mike is wearing a hat.
4549	Mike is wearing a pirate hat.
4560	Mike is wearing a hat.
4571	Mike is sitting on the table.
4572	Mike is sitting on the table.
4591	Mike is standing by the tree.
4594	Mike is in the sky.
4597	Mike is in the sky.
4612	Mike is wearing a hat.
4617	Mike is wearing a hat.
4618	Mike is wearing a hat.
4630	Jenny is on the table.
4634	Mike is sitting in the sky.
4642	Mike is wearing sunglasses.
4645	Mike is sitting on the table.
4650	Mike is holding a hamburger.
4652	Mike is holding a hamburger.
4656	Mike is wearing a hamburger.
4657	Mike is wearing sunglasses.
4664	Mike is wearing a hat.
4670	The duck is in the sky.
4671	Mike is standing by the tree.
4680	Mike is wearing a pirate hat.
4688	Mike is wearing a pirate hat.
4692	Mike is kicking the ball.
4694	Mike is kicking the ball.
4699	Jenny is wearing a pirate hat.
4700	Mike is wearing a hat.
4702	Jenny has a baseball.
4711	Mike is holding a pie.
4713	Mike is holding a pie.
4716	Mike is holding a pie.
4718	Mike is holding a pie.
4727	Mike is sitting in the sky.
4728	Mike is standing on the table.
4730	Mike is wearing a hat.
4735	Mike is wearing a blue hat.
4737	Mike is wearing sunglasses.
4744	Mike is wearing a hat.
4749	Mike is wearing a pirate hat.
4755	Mike and Jenny are playing ball.
4761	The cat is in the sky.
4773	Mike is holding balloons.
4777	Mike is jumping in the sky.
4781	Mike is holding a hot dog.
4791	Jenny is flying in the sky.
4796	Jenny is scared of the slide.
4802	Mike is kicking the soccer ball.
4811	Mike is wearing sunglasses.
4822	Mike is wearing a pirate hat.
4829	Jenny is waving at Jenny.
4835	Mike is wearing a hat.
4836	Mike is wearing a baseball cap.
4848	Jenny is on the grass.
4854	Mike is sitting on the table.
4861	Mike is sitting in the sky.
4863	Mike is sitting on the table.
4864	Mike is holding a pizza.
4866	Mike is holding a baseball.
4873	Mike is wearing sunglasses.
4875	Mike is sitting in the sandbox.
4876	Mike is sitting in the sandbox.
4882	Mike is holding a pizza.
4892	Mike is very upset.
4896	Mike is in the sky.
4911	Mike is wearing a hat.
4916	Mike is wearing a hat.
4928	Mike is holding a hot dog.
4935	Jenny is on the table.
4939	Mike is wearing a blue hat.
4955	The dog is on the table.
4956	Mike is wearing sunglasses.
4963	Jenny is running to Jenny.
4965	Mike is wearing a sunglasses.
4970	Mike is holding a baseball.
4971	Mike is wearing a hat.
4976	Mike is holding a baseball.
4977	Mike is holding a baseball.
4978	Mike is sitting in the tree.
4985	Mike is sitting on the tree.
5000	Mike is wearing sunglasses.
5001	Mike is sitting in the sky.
5010	Mike is sitting in the sky.
5011	Mike is sitting in the sky.
5015	Mike is wearing a hat.
5016	Mike is wearing a blue hat.
5023	Mike is sitting on the table.
5025	Mike is wearing a blue hat.
5026	Mike is sitting on the table.
5031	Mike is standing by Jenny.
5033	Mike is holding a hot dog.
5035	Mike is wearing a hat.
5039	Mike is holding a hamburger.
5044	Mike is sitting in the sandbox.
5047	Mike is wearing a blue hat.
5050	Mike is kicking the ball.
5052	Mike is kicking the ball.
5054	Mike is kicking the ball.
5056	Mike is wearing sunglasses.
5057	Mike is kicking the ball.
5066	Mike is playing with the dog.
5079	Mike is kicking the soccer ball.
5082	Mike is wearing sunglasses.
5091	Jenny is flying in the sky.
5093	Mike is wearing sunglasses.
5101	Mike is wearing a baseball cap.
5102	Jenny is on the slide.
5103	Mike is sitting on the table.
5114	Jenny is waving at Mike.
5118	Mike is wearing a hat.
5129	Mike is sitting in the sandbox.
5140	Mike is holding a hamburger.
5142	Mike is wearing sunglasses.
5156	Mike is wearing a hat.
5174	Mike is standing in the sky.
5175	Mike is holding a pie.
5188	Mike is sitting next to the tree.
5190	Mike and Jenny are playing baseball.
5197	The sun is in the sandbox.
5198	Mike is holding a beach ball.
5200	Mike is holding a pizza.
5205	Mike is throwing the frisbee.
5210	Mike and Jenny are playing frisbee.
5214	Mike is wearing sunglasses.
5217	Mike is wearing sunglasses.
5220	Mike is holding a tennis ball.
5225	Mike is wearing a hat.
5230	Jenny is running to Jenny.
5236	Mike is wearing a hat.
5238	Mike is playing with Mike.
5243	Mike is standing by the table.
5245	Mike is in the sandbox.
5246	Mike is wearing a hat.
5247	Mike is wearing a hat.
5251	Mike is holding a kite.
5253	Jenny is flying a kite.
5256	Mike is sitting in the sky.
5263	Mike is sitting in the tree.
5264	Mike is holding a hot dog.
5279	Jenny is wearing sunglasses.
5286	Mike is holding a football.
5291	Mike is sitting in the sky.
5299	Mike is standing by the tree.
5302	Mike is wearing a hat.
5304	Mike is wearing a hat.
5306	Jenny is wearing a hat.
5311	Mike is wearing a hat.
5315	Mike is sitting in the park.
5328	Mike is wearing sunglasses.
5333	Mike is wearing sunglasses.
5334	Mike is wearing sunglasses.
5341	Mike is wearing a hat.
5343	Mike is wearing a pirate hat.
5350	Mike is very happy.
5353	Jenny is flying in the sky.
5359	Mike is sitting in the tree.
5360	Mike is wearing a hat.
5367	Mike is wearing a hat.
5376	Mike is holding a football.
5378	The dog is in the sky.
5380	Mike is playing in the sky.
5381	Mike is wearing a hat.
5385	Mike is holding a baseball.
5393	Mike is holding a baseball.
5395	Mike has a soccer ball.
5399	Mike is wearing a baseball.
5402	Jenny is scared of the tree.
5404	Jenny is flying in the sky.
5407	Mike is wearing a hat.
5412	Mike is sitting in the sky.
5420	Mike is wearing a hat.
5421	Jenny kicked the soccer ball.
5433	Mike is wearing a hat.
5434	Mike is sitting on the tree.
5437	Mike is sitting on the table.
5453	Mike and Jenny are playing ball.
5456	Mike is wearing a baseball.
5457	Mike is wearing a baseball.
5467	Mike is sitting in the tree.
5471	Mike is sitting in the sky.
5472	Jenny is sitting on the tree.
5477	Mike is wearing a hat.
5478	Mike is wearing a hat.
5480	Mike is wearing a hat.
5482	Mike is wearing a blue hat.
5486	Mike is holding balloons.
5491	Mike is kicking the ball.
5496	Mike is kicking the ball.
5499	Mike is kicking the ball.
5502	Mike is wearing sunglasses.
5517	Mike is sitting in the sky.
5521	Mike is wearing a baseball.
5522	Mike and Jenny are playing baseball.
5533	Mike is in the tree.
5538	Mike is holding a pizza.
5549	Mike is wearing a blue cap.
5550	Mike is holding a hot dog.
5555	Mike is holding a hot dog.
5556	Mike is very sad.
5562	Mike is holding a dog.
5563	Mike is holding a hot dog.
5564	Mike is holding a hot dog.
5569	Mike is wearing sunglasses.
5575	Mike is standing on the table.
5576	Mike is wearing a hat.
5580	Mike is sitting in the sandbox.
5586	Mike is sitting in the sandbox.
5592	Mike is kicking the soccer ball.
5595	Mike is in the sky.
5607	Mike is wearing a hat.
5609	Jenny has a hamburger.
5611	Mike is kicking the football.
5612	Mike is kicking the soccer ball.
5617	Mike is wearing a hat.
5622	Mike is wearing a pirate hat.
5632	Mike is holding a pie.
5633	Mike is holding a pie.
5639	Mike is holding a pie.
5641	Jenny is scared of the tree.
5643	Jenny is flying in the sky.
5650	Mike is in the sky.
5655	Mike is holding a baseball.
5659	Mike is sitting in the tree.
5667	Mike is kicking the ball.
5670	Mike is sitting in the sky.
5673	Mike is wearing sunglasses.
5684	Mike is throwing the ball.
5686	Mike is throwing the ball.
5687	Mike is throwing the ball.
5688	Mike is wearing sunglasses.
5713	Mike is sitting in the sky.
5720	Mike is wearing a hat.
5721	Mike is sitting in the sky.
5722	Mike is sitting in the sky.
5728	Mike is wearing a baseball cap.
5761	Mike is wearing sunglasses.
5765	The cat is in the sky.
5767	Jenny is in the sky.
5775	Mike is wearing a hat.
5782	Mike is holding a baseball.
5783	Mike is holding a pizza.
5793	Mike is wearing sunglasses.
5796	Mike is sitting in the sky.
5800	Mike is holding a ball.
5803	Mike is holding a hot dog.
5806	Mike is mad at Mike.
5808	Mike is sitting in the sandbox.
5809	Mike is holding a hot dog.
5813	Jenny is waving at Mike.
5815	Mike is wearing a hat.
5816	Jenny is on the table.
5839	Mike is holding a hamburger.
5841	Mike is wearing a hat.
5844	Mike is wearing sunglasses.
5847	Mike is holding a pizza.
5854	Mike is sitting in the sky.
5857	Mike is wearing a blue cap.
5871	Mike is sitting on the table.
5876	Mike is sitting on the table.
5894	Mike is wearing a pirate hat.
5898	Mike is in the tree.
5901	Mike is holding a hot dog.
5907	Mike is sitting in the tree.
5932	Mike is in the sky.
5933	Mike is wearing sunglasses.
5936	Mike is sitting in the sky.
5937	Mike is sitting in the sky.
5939	Mike is wearing sunglasses.
5942	Mike is wearing a blue hat.
5946	The sun is in the tree.
5951	Mike is very happy.
5954	Mike is wearing a pirate hat.
5956	Mike is kicking the ball.
5965	Mike is in the sky.
5973	Mike is wearing a hat.
5975	Mike is sitting in the sky.
5976	Jenny is afraid of Jenny.
5983	Mike is wearing a hat.
5984	Mike is kicking the ball.
5994	Mike is wearing a pirate hat.
6018	Mike is wearing sunglasses.
6022	Mike is wearing a sunglasses.
6028	Mike is holding a baseball.
6031	Jenny is on the table.
6034	Mike is sitting on the table.
6035	Mike is wearing a hat.
6040	Mike is standing by the tree.
6049	Mike is mad at the bear.
6050	Jenny is in the tree.
6059	Jenny is wearing a blue hat.
6063	Mike is wearing a hat.
6064	Mike is sitting in the sandbox.
6071	Mike is sitting on the slide.
6079	Mike is sitting on the sky.
6080	Mike is kicking the soccer ball.
6084	Mike is kicking the soccer ball.
6087	Mike is in the sky.
6094	Mike is wearing a viking hat.
6095	Mike is wearing a viking hat.
6099	Mike is wearing a blue hat.
6103	Mike is in the sandbox.
6104	Mike is wearing a hat.
6105	Mike is wearing a hat.
6124	Mike is wearing a hat.
6125	Mike is wearing sunglasses.
6138	Mike is holding a hot dog.
6142	Mike is sitting in the sandbox.
6144	Mike is sitting in the sandbox.
6146	Mike is sitting in the sandbox.
6148	Mike is wearing sunglasses.
6167	Mike wants the ball.
6179	Mike is kicking the football.
6181	Mike is sitting in the sky.
6184	Mike is sitting in the sky.
6186	Jenny is flying in the sky.
6191	Mike is standing in the sandbox.
6198	Mike is sitting on the table.
6207	Mike is wearing a silly hat.
6216	Mike is holding a hamburger.
6224	Mike is wearing a silly hat.
6229	Mike is wearing a hat.
6234	Mike is sitting on Mike.
6247	Jenny is sitting in the tree.
6253	Mike is wearing a hat.
6255	Mike is holding a baseball.
6269	Mike is in the sky.
6273	Mike is wearing a witch hat.
6280	Mike is wearing a hat.
6295	Mike is holding a ball.
6300	Mike is wearing a blue hat.
6303	Mike is wearing a hat.
6304	Mike is standing by the tree.
6306	Mike is standing by the tree.
6309	Mike is wearing a pirate hat.
6314	Mike is wearing a ball.
6318	Mike is holding a ball.
6327	Mike is sitting on the table.
6328	Mike is wearing a hat.
6330	Mike is wearing a hat.
6331	Mike is wearing sunglasses.
6344	Mike is in the sandbox.
6346	Mike is wearing a hat.
6347	Mike is wearing a blue hat.
6350	Jenny is flying in the sky.
6359	Mike is holding a pie.
6362	Mike is wearing a hat.
6366	Mike is wearing a hat.
6368	Jenny is running to Jenny.
6374	Mike is holding a pie.
6379	Mike is holding a pie.
6381	Mike is sitting in the tree.
6384	Mike is in the sky.
6395	Mike and Jenny are playing frisbee.
6399	Mike is wearing a hat.
6400	Mike is kicking the soccer ball.
6407	Mike is wearing a blue cap.
6416	Mike is sitting in the sky.
6417	Mike is wearing sunglasses.
6424	The sun is in the sky.
6429	Mike is scared of the tree.
6430	Mike is wearing a blue hat.
6431	Mike is wearing sunglasses.
6441	Mike is wearing a hat.
6447	Mike is wearing sunglasses.
6453	Mike is wearing a pirate hat.
6455	Mike is wearing a pirate hat.
6470	Mike is sitting in the sandbox.
6478	Mike is throwing the ball.
6479	Mike is holding a football.
6488	The owl is in the sky.
6490	Mike is sitting on the grass.
6492	Mike is holding a baseball.
6498	Mike is holding a pie.
6500	Mike is standing by the tree.
6501	Mike is standing by the tree.
6502	Mike is flying in the sandbox.
6506	Mike is wearing sunglasses.
6507	Mike is wearing a hat.
6508	Mike is wearing sunglasses.
6511	Mike is wearing a hat.
6520	Mike is kicking the soccer ball.
6521	Jenny kicked the ball.
6522	Mike is sitting in the sky.
6523	Mike is kicking the ball.
6527	Mike is wearing a hat.
6536	Mike is wearing a hat.
6537	Mike is sitting on the table.
6539	Mike is sitting in the sky.
6540	Mike is holding a hamburger.
6558	Mike is sitting in the sandbox.
6560	Mike is wearing a hat.
6569	Mike is wearing a pirate hat.
6577	Mike is sitting on the table.
6582	Jenny is wearing sunglasses.
6583	Mike is standing by the table.
6596	Mike is holding a baseball.
6599	Mike is wearing sunglasses.
6604	Mike is wearing a hat.
6606	Mike is kicking the soccer ball.
6608	Mike is kicking the soccer ball.
6611	Mike is sitting in the tree.
6618	Mike is wearing a pirate hat.
6620	Jenny is on the table.
6621	Mike is in the sky.
6627	Mike is wearing a hat.
6628	Mike is sitting on the table.
6629	Mike is sitting on the table.
6635	The helicopter is in the sky.
6641	Mike is sitting in the sandbox.
6644	Mike is sitting on the slide.
6654	Mike is standing in the sky.
6659	Mike is sitting in the sky.
6660	Mike is sitting in the tree.
6665	Mike is sitting in the tree.
6669	Mike is wearing a ball.
6671	Mike is wearing a hat.
6672	Mike is wearing a hat.
6675	Mike is wearing a hat.
6677	Mike is wearing a hat.
6682	Mike is sitting on the table.
6683	Mike is kicking the ball.
6686	Mike is wearing a hat.
6689	Mike is wearing a hat.
6693	Mike is wearing a hat.
6697	Mike is wearing a hat.
6705	Mike is wearing sunglasses.
6707	Mike is wearing sunglasses.
6710	Mike is holding a kite.
6724	Mike is kicking the soccer ball.
6726	Mike is wearing a hat.
6731	Mike is sitting in the sandbox.
6732	Mike is sitting in the sandbox.
6739	Mike is wearing a blue cap.
6745	Jenny is flying a kite.
6748	Mike is kicking the soccer ball.
6755	Mike is holding a kite.
6759	Mike is wearing a baseball.
6768	Mike is wearing a hat.
6776	Mike is sitting in the tree.
6777	Mike is wearing a hat.
6779	Mike is wearing a hat.
6795	Mike is wearing a pirate hat.
6799	Mike is holding a baseball.
6800	The owl is in the sky.
6814	Mike is wearing sunglasses.
6819	Mike is wearing sunglasses.
6821	Mike is in the sandbox.
6823	Mike is in the sandbox.
6825	Mike is sitting in the sandbox.
6828	Mike is playing in the sandbox.
6833	Mike is wearing a hat.
6834	Mike is holding a pie.
6839	Mike is holding a pie.
6844	Mike is very happy.
6845	Mike is wearing a hat.
6848	Mike is very happy.
6851	Mike is sitting in the sky.
6856	Mike is wearing sunglasses.
6870	Mike is sitting on the table.
6873	Mike is wearing a hat.
6882	The sun is in the sandbox.
6884	Mike is wearing a blue cap.
6890	Mike is coming in the sky.
6898	Mike is next to the tree.
6903	Mike is in the sky.
6911	Mike is kicking the ball.
6912	Mike is kicking the ball.
6915	Mike is kicking the ball.
6921	Mike is wearing sunglasses.
6923	Mike is kicking the soccer ball.
6942	Mike is holding a hamburger.
6958	Mike is mad at Mike.
6960	Mike is standing in the sky.
6963	Mike is standing by the tree.
6975	Mike is standing by the tree.
6977	Mike has a baseball.
6993	Mike is wearing a pirate hat.
7007	Mike is wearing a hat.
7019	Mike is sitting on the table.
7021	Mike is wearing a hat.
7030	Mike is wearing a hat.
7039	Mike is sitting in the sky.
7041	Jenny is scared of the tree.
7053	Mike is standing in the sky.
7059	Mike is wearing sunglasses.
7062	Mike is sitting in the sandbox.
7065	Mike is wearing a hat.
7066	Mike is sitting on the slide.
7077	Mike is in the sandbox.
7078	Jenny is waving at Mike.
7079	Mike is holding a baseball.
7084	Mike is kicking the ball.
7089	Mike is wearing a hat.
7091	Mike is holding a pie.
7094	Mike is sitting in the sky.
7095	Mike is holding a pie.
7099	Mike is wearing a pirate hat.
7104	Mike is sitting in the sandbox.
7109	Mike is in the sandbox.
7112	Mike is standing on the table.
7118	Mike is wearing a blue hat.
7120	Mike is playing with Mike.
7121	Mike is kicking the ball.
7122	Mike is wearing a blue cap.
7125	Mike is holding a tennis ball.
7130	Jenny is sitting in the sandbox.
7134	Jenny is sitting in the sandbox.
7144	Mike is sitting on the grass.
7149	Mike is wearing a hat.
7160	Mike is sitting in the tree.
7164	Mike is sitting in the tree.
7165	Mike is angry at Jenny.
7166	Mike is sitting in the sky.
7169	Mike is wearing a hat.
7170	Mike is holding a pizza.
7172	Mike is holding a pizza.
7177	Mike is holding a pizza.
7178	Mike is standing on the table.
7179	Mike is holding a pizza.
7189	Mike is wearing a hat.
7190	Mike is wearing sunglasses.
7197	Mike is wearing sunglasses.
7207	Mike is kicking the soccer ball.
7213	Mike is wearing a hat.
7214	Mike is wearing a hat.
7217	Mike is sitting in the tree.
7219	Mike is sitting in the sky.
7226	Mike is sitting in the sandbox.
7227	Mike is sitting in the sandbox.
7236	Mike is wearing a hamburger.
7240	Mike is holding a kite.
7243	Mike is wearing a hat.
7245	Mike is holding a kite.
7250	Mike is wearing a hat.
7253	Mike is wearing a chef hat.
7254	Mike is wearing a hat.
7255	Mike is wearing sunglasses.
7258	Mike is sitting on the table.
7265	Mike is holding balloons.
7266	Mike is holding balloons.
7272	Mike is wearing a baseball.
7281	Mike is sitting on the slide.
7288	Mike is in the sky.
7293	Mike and Jenny are playing baseball.
7300	Mike is holding a pie.
7305	Mike is wearing a hat.
7325	Mike is kicking the ball.
7327	Mike is wearing a hat.
7329	Jenny is flying in the sky.
7330	Mike is wearing a hat.
7332	Mike is wearing sunglasses.
7336	Mike is wearing a blue hat.
7340	Mike is wearing a hat.
7345	Mike is kicking the soccer ball.
7346	Mike is wearing a hat.
7356	Jenny is scared of the bear.
7365	Mike is in the sky.
7370	Mike is wearing a pirate hat.
7382	Mike is wearing a ball.
7384	The dog is on the tree.
7386	Mike and Jenny are playing ball.
7387	Mike is holding a baseball.
7398	Mike is wearing a hat.
7401	Mike is sitting on the tree.
7402	Mike is eating a hamburger.
7403	Mike is holding a hamburger.
7423	Mike is holding a baseball.
7429	Mike is wearing a hat.
7430	Mike is sitting in the tree.
7432	Mike is sitting in the sky.
7437	Mike is sitting on the slide.
7449	Mike is sitting in the tree.
7455	Mike is sitting in the sky.
7461	Mike is kicking the soccer ball.
7463	Mike is wearing a hat.
7465	Mike is wearing a hat.
7466	Mike is kicking the ball.
7475	Mike is throwing the ball.
7476	Mike is sitting in the sandbox.
7478	Mike and Jenny are playing frisbee.
7479	Mike is sitting in the tree.
7494	Jenny is wearing sunglasses.
7500	Mike is holding a baseball.
7502	Mike is wearing a ball.
7516	Mike is throwing the ball.
7526	Jenny is holding a baseball.
7534	Jenny is wearing a hat.
7536	Mike is wearing sunglasses.
7537	Jenny is wearing a hat.
7544	The dog is in the tree.
7546	Mike is wearing sunglasses.
7551	Mike is holding a pizza.
7557	Mike is in the sky.
7560	Mike is sitting on the table.
7562	Mike is sitting in the tree.
7567	Mike is sitting in the tree.
7569	Mike is holding a frisbee.
7578	Jenny kicked the soccer ball.
7582	Jenny is holding the balloons.
7588	Mike is sitting in the sandbox.
7605	Mike is standing by the tree.
7607	Mike is holding a baseball.
7617	Mike is near a tree.
7618	Mike is wearing a hat.
7633	Mike is standing by the tree.
7639	Mike is wearing a hat.
7644	Mike is sitting in the sky.
7646	Mike is throwing the ball.
7652	Mike is wearing sunglasses.
7654	Mike is wearing a pirate hat.
7657	Mike is wearing a hat.
7660	Mike is a ball.
7664	Mike is very angry.
7665	Mike is holding a hamburger.
7666	Mike is wearing a hat.
7678	Mike is sitting on the table.
7681	The sun is in the sky.
7689	Jenny is scared of the bear.
7693	Mike is holding a hamburger.
7698	Mike is wearing a hat.
7699	Mike is wearing a hat.
7702	Mike is sitting in the sandbox.
7705	Mike is sitting in the sandbox.
7706	Mike is sitting in the sandbox.
7708	Mike is wearing sunglasses.
7717	Mike is wearing a blue hat.
7731	Mike is sitting in the sandbox.
7736	Mike is sitting in the sandbox.
7738	Mike is sitting in the sandbox.
7740	Mike is sitting on the table.
7746	Mike is in the sandbox.
7747	Mike is playing in the sky.
7748	Mike is holding a ball.
7751	Jenny is flying in the sky.
7756	Mike is sitting in the sky.
7770	Mike is holding a baseball.
7772	Mike is throwing a baseball.
7777	Mike is holding a baseball.
7779	Mike is throwing the ball.
7782	Mike is playing in the sky.
7784	Jenny is flying in the sky.
7786	Mike is wearing a hat.
7787	Mike is wearing a hat.
7789	Mike is sitting in the sky.
7796	Mike is wearing sunglasses.
7797	Mike is wearing a hat.
7798	Jenny is running to Jenny.
7803	Mike is in the sky.
7806	Mike is wearing a pirate hat.
7825	Mike is standing by the table.
7827	Mike is sitting on the dog.
7833	Mike is wearing a pirate hat.
7835	Mike is sitting in the sky.
7839	Mike is holding a kite.
7840	Mike is holding a soccer ball.
7848	Mike is holding a baseball.
7851	Mike is wearing a hat.
7871	Mike is holding a baseball.
7879	Mike is holding a hot dog.
7883	Mike is wearing a hat.
7886	Mike is wearing a hat.
7887	Mike is wearing a hat.
7890	Mike is holding a hot dog.
7893	Mike is wearing sunglasses.
7898	Mike is wearing a hat.
7904	Mike is holding a hamburger.
7907	Mike is standing by the tree.
7910	Mike and Jenny are playing frisbee.
7913	Mike has a frisbee.
7915	Mike is wearing a hat.
7916	Mike is holding balloons.
7930	Mike is kicking the ball.
7931	Mike is wearing a hat.
7945	Mike is wearing sunglasses.
7946	Mike is wearing a ball.
7951	Mike is wearing a pirate hat.
7962	Mike is sitting on the table.
7965	Mike is sitting on the table.
7966	Mike is holding a kite.
7971	Mike is wearing sunglasses.
7972	Mike is wearing sunglasses.
7974	Mike is wearing a baseball.
7981	Mike is wearing sunglasses.
7991	Mike is standing by the tree.
8001	Mike is holding a kite.
8008	Mike is wearing a hat.
8009	Mike is sitting on the table.
8010	Mike is holding a hot dog.
8011	Mike is standing by the tree.
8019	Mike is sitting in the tree.
8020	Mike is wearing a chef hat.
8021	Mike is sitting on the slide.
8027	Mike is sitting on the slide.
8028	Mike is wearing a pirate hat.
8030	Mike is holding a hot dog.
8032	Mike is wearing sunglasses.
8038	Mike is wearing a hat.
8043	Mike is holding a beach ball.
8047	Mike is holding a beach ball.
8048	Mike is holding a tennis ball.
8050	Mike is holding a hamburger.
8051	Mike is holding a hamburger.
8054	Mike is wearing a hat.
8059	Mike is holding a hamburger.
8065	Mike is kicking the ball.
8066	Mike is kicking the soccer ball.
8070	Jenny is holding a hamburger.
8081	Mike is wearing a hat.
8098	Mike is sitting in the sky.
8107	The owl is in the sky.
8109	Jenny is flying a kite.
8115	Mike is wearing sunglasses.
8124	Mike is wearing a hat.
8132	Mike is wearing sunglasses.
8138	Mike is wearing sunglasses.
8142	Mike is standing by the tree.
8144	Mike is kicking the ball.
8147	Mike is holding a pizza.
8156	Mike is wearing a pirate hat.
8167	Mike is sitting on the table.
8169	Mike is sitting on the table.
8181	Mike is holding a hamburger.
8183	Mike is holding a hamburger.
8193	Mike is sitting in the sandbox.
8202	Mike is wearing a hat.
8203	Mike is wearing sunglasses.
8207	Mike is wearing a hat.
8209	Mike is wearing a blue hat.
8210	Mike is wearing a silly hat.
8217	Mike is wearing sunglasses.
8230	Mike is sitting in the sky.
8243	Jenny is flying in the sky.
8244	Mike is sitting in the sky.
8248	Jenny is scared of the snake.
8249	Mike is wearing a hat.
8261	Mike is holding a hamburger.
8263	Mike is wearing a pirate hat.
8265	Mike is wearing a hat.
8276	Mike is wearing a hat.
8279	Mike is wearing a hat.
8283	Mike is wearing a pirate hat.
8284	Mike is in the sky.
8288	Jenny is flying in the sky.
8291	Mike and Jenny are playing frisbee.
8292	Mike is wearing a pirate hat.
8296	Mike is wearing a pirate hat.
8297	Mike is wearing a pirate hat.
8302	Mike is wearing a hat.
8312	Mike is holding the balloons.
8321	Jenny is on the table.
8323	The cat is in the sky.
8327	Mike is holding a dog.
8331	Mike is wearing a blue hat.
8337	Mike is wearing sunglasses.
8342	Mike is wearing sunglasses.
8343	Mike is holding a tennis ball.
8347	Mike is wearing a hat.
8352	Mike is kicking the soccer ball.
8360	Mike is holding a pizza.
8385	Mike is sitting on the table.
8402	Mike is sitting in the sky.
8406	Mike is wearing a blue hat.
8407	Mike is wearing sunglasses.
8417	Mike is holding balloons.
8420	Jenny has a baseball.
8422	Jenny is wearing a hat.
8429	Mike is holding a baseball.
8438	Mike is holding a kite.
8439	Mike is wearing a viking hat.
8448	Mike is holding a baseball.
8454	Mike is kicking the soccer ball.
8459	Mike is sitting in the sandbox.
8464	Mike is jumping in the sky.
8466	Mike is standing in the sky.
8467	The owl is in the sky.
8469	Mike is in the sky.
8471	Mike is wearing a hat.
8472	Mike is raining on the tree.
8475	Mike is wearing a hat.
8477	Mike is raining on Mike.
8479	Mike is standing in the tree.
8501	Mike is raining on the table.
8502	Mike is holding a baseball.
8510	Mike is sitting in the sky.
8516	Mike is sitting in the sky.
8518	Mike is sitting in the sky.
8528	Jenny is wearing a hat.
8529	Mike is wearing a hat.
8530	The dog is on the table.
8536	Mike is wearing a pirate hat.
8538	Jenny is on the table.
8541	Mike and Jenny are playing baseball.
8543	Mike is kicking the ball.
8550	Mike is sitting on the slide.
8551	Mike is sitting in the tree.
8555	Mike is wearing a hat.
8571	Mike is holding a hamburger.
8573	Mike is wearing a hat.
8574	Mike is holding a hamburger.
8586	Mike is wearing a hat.
8587	Mike is wearing a pirate hat.
8589	Mike is wearing sunglasses.
8594	Jenny is on the table.
8596	Mike is holding balloons.
8598	Mike is wearing a hat.
8604	The sun is in the sky.
8608	Mike is wearing a pirate hat.
8615	Jenny is on the table.
8617	Mike is wearing a blue hat.
8622	Mike is holding a pie.
8635	Mike is holding a hamburger.
8660	Mike is jumping in the sky.
8666	Mike is wearing a viking hat.
8667	Mike is in the sky.
8671	Jenny is flying a kite.
8684	Mike is wearing a blue hat.
8685	Mike is wearing a hat.
8687	Mike is wearing a hat.
8691	Mike is wearing a silly hat.
8696	Mike is wearing a hat.
8705	Mike is wearing a hat.
8707	Mike is wearing a hat.
8710	Mike is holding a pie.
8716	Mike is holding a pie.
8718	Mike is holding a pie.
8721	Mike is wearing a hat.
8723	Mike is wearing sunglasses.
8724	Mike is sitting on the table.
8728	Mike is sitting in the sky.
8729	Mike is wearing a blue hat.
8739	Mike is mad at Mike.
8740	Jenny is sitting in the sandbox.
8750	Mike is holding a baseball.
8761	Mike is standing by the tree.
8762	Mike is sitting by the tree.
8769	Mike is sitting in the sky.
8772	Mike is wearing a hat.
8781	Mike is jumping in the sky.
8783	Mike is wearing a hat.
8791	Mike is in the sandbox.
8793	Mike is standing in the tree.
8796	Mike is wearing sunglasses.
8799	Jenny is holding a baseball.
8802	Mike is wearing a baseball.
8803	Mike is wearing a hat.
8812	Mike is holding a ball.
8820	Mike is sitting in the sandbox.
8826	Mike is sitting in the sandbox.
8828	Mike is sitting in the sandbox.
8830	Jenny is scared of the snake.
8831	Jenny is afraid of the tree.
8833	Mike is wearing a hat.
8834	Mike is wearing a hat.
8842	Mike is wearing a hat.
8847	Mike is wearing a pirate hat.
8849	Mike is kicking the soccer ball.
8851	Mike is wearing a baseball.
8858	Mike is holding the balloons.
8861	Mike is wearing a blue cap.
8866	Mike is sitting on the grass.
8867	Mike is wearing a pirate hat.
8886	Mike is wearing a baseball.
8897	Mike is kicking the ball.
8901	Jenny is flying in the sky.
8904	Mike is in the sky.
8907	Jenny is wearing sunglasses.
8910	Mike is holding a baseball.
8911	Mike is holding a football.
8916	Mike is in the sky.
8918	Mike is in the sky.
8932	Mike is wearing sunglasses.
8958	Mike is wearing a hat.
8962	Mike is sitting on the dog.
8969	Mike is sitting on the grass.
8974	Mike is holding a hot dog.
8984	Mike is wearing sunglasses.
8986	Mike is holding a baseball.
8993	Mike is jumping in the sky.
8995	Mike is wearing a hat.
8998	Mike is wearing a hat.
8999	Jenny is flying in the sky.
9011	Jenny is waving at Mike.
9016	Mike is holding a pie.
9017	Mike is wearing a hat.
9018	Mike is holding a pie.
9022	Mike is sitting in the tree.
9023	Mike is wearing a hat.
9024	Jenny is scared of the tree.
9026	Mike is in the sky.
9030	Mike is wearing a pirate hat.
9035	Mike is holding balloons.
9039	Mike is wearing a pirate hat.
9046	Mike is sitting in the tree.
9053	The duck is standing by Jenny.
9059	Jenny is flying a kite.
9062	Mike is sitting on the table.
9069	Mike is wearing a hat.
9073	Jenny is flying a kite.
9076	Mike is wearing a chef hat.
9079	Jenny is flying a kite.
9081	Mike is holding a hamburger.
9085	Mike is wearing a hat.
9086	Mike is sitting on the table.
9088	Mike is standing on the table.
9092	Mike is wearing a hat.
9093	Mike is wearing a viking hat.
9105	Mike is wearing a silly hat.
9109	Mike is wearing a hat.
9111	Mike is holding a hamburger.
9139	Mike is wearing a chef hat.
9148	Mike is kicking the soccer ball.
9149	Mike is kicking the soccer ball.
9152	Mike is sitting in the sandbox.
9159	Mike is in the sandbox.
9162	Mike is wearing a pirate hat.
9163	Mike is wearing a pirate hat.
9169	Mike is wearing a pirate hat.
9178	Mike is kicking the soccer ball.
9179	Mike is kicking the soccer ball.
9193	Mike is in the sandbox.
9195	Mike is holding a kite.
9207	Jenny is running to Jenny.
9208	Mike is wearing sunglasses.
9210	Mike is kicking the ball.
9214	Mike is in the tree.
9219	Mike is wearing a hat.
9221	Mike is wearing a pirate hat.
9223	Mike is wearing a hat.
9235	Mike is sitting in the tree.
9249	Mike is wearing sunglasses.
9251	Mike is wearing a blue hat.
9261	Mike is wearing sunglasses.
9273	Mike is sitting in the sky.
9274	Mike is wearing a hat.
9279	Mike is sitting in the tree.
9284	Mike is very happy.
9286	Mike is standing by the tree.
9287	Mike is wearing a hat.
9291	Mike is holding a tennis ball.
9297	Mike is in the sandbox.
9302	Mike is holding a pizza.
9310	Mike is sitting on the table.
9313	Mike is holding a pizza.
9319	Mike is sitting on the table.
9322	Mike is sitting on the table.
9327	Mike is sitting on the table.
9340	Mike is standing by the tree.
9341	Mike is jumping in the sky.
9342	Mike is holding a pie.
9344	Mike is happy to the tree.
9346	Mike is in the sky.
9363	Jenny is sitting in the sky.
9367	Jenny is sitting on the table.
9368	The cat is in the sandbox.
9369	Jenny is sitting in the sky.
9372	Mike is holding a ball.
9377	The sun is in the sky.
9379	Mike is kicking the ball.
9380	Mike is holding a hot dog.
9384	Mike is sitting on the table.
9393	Mike is standing on the table.
9400	Mike is holding a football.
9402	Mike is throwing the ball.
9413	Mike is in the sky.
9417	Jenny is flying in the sky.
9424	Jenny is flying in the sky.
9442	Mike is wearing a hat.
9444	Mike is wearing a hat.
9447	Mike is wearing a hat.
9453	Jenny is scared of the tree.
9454	Jenny is afraid of the tree.
9455	Jenny is running to the tree.
9458	Jenny is scared of the snake.
9459	Jenny is scared of the snake.
9460	Mike is sitting in the sky.
9461	Jenny is holding a ball.
9466	Mike is sitting in the sky.
9467	Jenny is flying in the sky.
9469	Mike is wearing sunglasses.
9471	Mike is wearing a hat.
9486	Mike is kicking the soccer ball.
9491	Mike is sitting in the sky.
9492	Mike is wearing sunglasses.
9493	Mike is sitting in the sky.
9499	Mike is wearing sunglasses.
9500	Mike is sitting on the table.
9503	Jenny is flying a kite.
9522	Mike is wearing a blue hat.
9551	The cat is sitting on the table.
9558	The cat is in the sky.
9560	Mike is wearing a pie.
9570	Mike is wearing a hat.
9572	Mike is standing next to the tree.
9574	Mike is wearing sunglasses.
9577	Mike is wearing a hat.
9584	Mike is holding a hamburger.
9596	Mike is wearing a hat.
9597	Mike is wearing a hat.
9600	Mike is wearing sunglasses.
9617	Mike is wearing sunglasses.
9622	Mike is wearing sunglasses.
9624	Mike is throwing the ball.
9628	Mike is throwing the ball.
9632	Mike is wearing a pirate hat.
9633	Mike is standing by the tree.
9647	Mike is wearing a blue hat.
9650	Mike is wearing a hat.
9651	Mike is wearing sunglasses.
9652	Mike has a soccer ball.
9653	Mike is wearing a hat.
9665	Jenny is sitting in the sandbox.
9666	Mike is holding balloons.
9669	Mike is wearing a ball.
9670	Mike is wearing a hat.
9676	Mike is wearing a hat.
9687	Jenny is holding a kite.
9715	The owl is in the sky.
9716	Mike is sitting on the table.
9719	Mike is wearing a pirate hat.
9731	Mike is wearing sunglasses.
9733	Mike is wearing a hat.
9735	Mike is wearing sunglasses.
9739	Mike is sitting in the tree.
9752	Mike is wearing a kite.
9754	Mike is sitting in the sky.
9755	Mike is sitting in the sky.
9756	Mike is sitting in the sky.
9757	Mike is wearing a hat.
9758	Mike is sitting in the tree.
9759	Mike is wearing a hat.
9766	Mike is sitting on the table.
9768	Mike is standing by the table.
9812	Mike is sitting on the grass.
9820	Mike is sitting on Mike.
9830	Mike is angry at Jenny.
9832	Mike is kicking the soccer ball.
9838	Mike is wearing a pirate hat.
9845	Mike is kicking the soccer ball.
9846	Mike is kicking the ball.
9847	Mike is kicking the ball.
9848	Jenny is waving at the bear.
9851	Mike is holding a hot dog.
9855	Mike is wearing sunglasses.
9884	Mike is sitting in the sky.
9886	Mike is looking at Mike.
9890	Mike is sitting in the tree.
9893	Mike is sitting on the table.
9906	Jenny is flying a kite.
9912	Mike is sitting in the tree.
9914	Mike and Jenny are playing baseball.
9920	Mike is wearing sunglasses.
9926	Mike is holding a hamburger.
9932	Mike is wearing a hat.
9933	Mike is wearing a hat.
9937	Mike is wearing a hat.
9938	Mike is wearing a hat.
9941	Mike is sitting in the sandbox.
9943	Mike is sitting in the sandbox.
9944	Mike is sitting in the sandbox.
9947	Mike is sitting in the sandbox.
9957	Mike is kicking the ball.
9966	Mike is wearing a hat.
9967	Mike is in the tree.
9972	Mike is wearing sunglasses.
9981	Mike is holding a baseball.
9986	Mike is holding a baseball.
9993	Mike is sitting in the sky.
9995	Mike is wearing a hamburger.
9999	Mike is wearing a hat.
10000	Jenny is flying in the sky.
10003	Mike is wearing a ball.
10019	Mike is a beach ball.
