# Coverage	# Frequency	# Lemma	# Candidates
84.0192121866652	29563	be	is,are,was,'s,am,be,were,'re,being,been
11.5557323935656	4066	to	to
1.40112544762121	493	do	did,does,do
1.27891775137839	450	have	having,has,have,had
1.06860683226283	376	will	will,wo
0.323992497015859	114	can	ca,can
0.105155459557779	37	would	would
0.0824191439777184	29	could	could
0.0767350650827033	27	might	might
0.048314670607628	17	should	should
0.0198942761325527	7	may	may
0.00852611834252259	3	s	s
0.00568407889501506	2	must	must
0.00284203944750753	1	's	's
0.00284203944750753	1	get	got
